^C:\USERS\DAWID\DOCUMENTS\VISUAL STUDIO 2015\PROJECTS\PROJECT2\SOURCE.CPP
/c /ZI /nologo /W3 /WX- /sdl /Od /D _MBCS /Gm /EHsc /RTC1 /MDd /GS /fp:precise /Zc:wchar_t /Zc:forScope /Zc:inline /Fo"X64\DEBUG\\" /Fd"X64\DEBUG\VC140.PDB" /Gd /TP C:\USERS\DAWID\DOCUMENTS\VISUAL STUDIO 2015\PROJECTS\PROJECT2\SOURCE.CPP
^C:\OPENCV-3.1.0\PBL\PBL15\SOURCE.CPP
/c /ZI /nologo /W3 /WX- /sdl /Od /D _MBCS /Gm /EHsc /RTC1 /MDd /GS /fp:precise /Zc:wchar_t /Zc:forScope /Zc:inline /Fo"X64\DEBUG\\" /Fd"X64\DEBUG\VC140.PDB" /Gd /TP C:\OPENCV-3.1.0\PBL\PBL15\SOURCE.CPP
