^C:\USERS\DAWID\DOCUMENTS\VISUAL STUDIO 2015\PROJECTS\PROJECT2\SOURCE.CPP
C:\USERS\DAWID\DOCUMENTS\VISUAL STUDIO 2015\PROJECTS\PROJECT2\X64\DEBUG\VC140.PDB
C:\USERS\DAWID\DOCUMENTS\VISUAL STUDIO 2015\PROJECTS\PROJECT2\X64\DEBUG\VC140.IDB
C:\USERS\DAWID\DOCUMENTS\VISUAL STUDIO 2015\PROJECTS\PROJECT2\X64\DEBUG\SOURCE.OBJ
^C:\OPENCV-3.1.0\PBL\PBL15\SOURCE.CPP
C:\OPENCV-3.1.0\PBL\PBL15\X64\DEBUG\VC140.PDB
C:\OPENCV-3.1.0\PBL\PBL15\X64\DEBUG\VC140.IDB
C:\OPENCV-3.1.0\PBL\PBL15\X64\DEBUG\SOURCE.OBJ
