^C:\USERS\DAWID\DOCUMENTS\VISUAL STUDIO 2015\PROJECTS\PROJECT2\X64\DEBUG\SOURCE.OBJ
/OUT:"C:\USERS\DAWID\DOCUMENTS\VISUAL STUDIO 2015\PROJECTS\PROJECT2\X64\DEBUG\PROJECT2.EXE" /INCREMENTAL /NOLOGO OPENCV_WORLD310D.LIB KERNEL32.LIB USER32.LIB GDI32.LIB WINSPOOL.LIB COMDLG32.LIB ADVAPI32.LIB SHELL32.LIB OLE32.LIB OLEAUT32.LIB UUID.LIB ODBC32.LIB ODBCCP32.LIB /MANIFEST /MANIFESTUAC:"level='asInvoker' uiAccess='false'" /manifest:embed /DEBUG:FASTLINK /PDB:"C:\USERS\DAWID\DOCUMENTS\VISUAL STUDIO 2015\PROJECTS\PROJECT2\X64\DEBUG\PROJECT2.PDB" /TLBID:1 /DYNAMICBASE /NXCOMPAT /IMPLIB:"C:\USERS\DAWID\DOCUMENTS\VISUAL STUDIO 2015\PROJECTS\PROJECT2\X64\DEBUG\PROJECT2.LIB" /MACHINE:X64 X64\DEBUG\SOURCE.OBJ
^C:\OPENCV-3.1.0\PBL\PBL15\X64\DEBUG\SOURCE.OBJ
/OUT:"C:\OPENCV-3.1.0\PBL\PBL15\X64\DEBUG\PROJECT2.EXE" /INCREMENTAL /NOLOGO OPENCV_WORLD310D.LIB KERNEL32.LIB USER32.LIB GDI32.LIB WINSPOOL.LIB COMDLG32.LIB ADVAPI32.LIB SHELL32.LIB OLE32.LIB OLEAUT32.LIB UUID.LIB ODBC32.LIB ODBCCP32.LIB /MANIFEST /MANIFESTUAC:"level='asInvoker' uiAccess='false'" /manifest:embed /DEBUG:FASTLINK /PDB:"C:\OPENCV-3.1.0\PBL\PBL15\X64\DEBUG\PROJECT2.PDB" /TLBID:1 /DYNAMICBASE /NXCOMPAT /IMPLIB:"C:\OPENCV-3.1.0\PBL\PBL15\X64\DEBUG\PROJECT2.LIB" /MACHINE:X64 X64\DEBUG\SOURCE.OBJ
