^C:\OPENCV-3.1.0\PBL\PBL15\X64\DEBUG\PROJECT2\MAIN.OBJ
C:\OPENCV-3.1.0\PBL\PBL15\X64\DEBUG\PROJECT2.ILK
C:\OPENCV-3.1.0\PBL\PBL15\X64\DEBUG\PROJECT2.EXE
C:\OPENCV-3.1.0\PBL\PBL15\X64\DEBUG\PROJECT2.PDB
